{
  "schema": "iglu:com.snowplowanalytics.snowplow/ua_parser_config/jsonschema/1-0-1",
  "data": {
    "vendor": "com.snowplowanalytics.snowplow",
    "name": "ua_parser_config",
    "enabled": true,
    "parameters": {
      "database": "regexes-latest.yaml",
      "uri": "https://snowplow-hosted-assets.s3.amazonaws.com/third-party/ua-parser/"
    }
  }
}
